{
  "coverage": "0%",
  "expectCount": 3,
  "actualCount": 0,
  "files": {
    "src/Store/index.js": {
      "expectCount": 1,
      "actualCount": 0,
      "undocumentLines": [
        3
      ]
    },
    "src/Store/TextStore.js": {
      "expectCount": 2,
      "actualCount": 0,
      "undocumentLines": [
        4,
        23
      ]
    }
  }
}